Problem Set 1
…
18. When conducting these tests, the authors first calculate the average decision of each subject across rounds. This implies the authors do not want to treat subject decisions as independent across rounds. Why? Because after each round, the inviduals or the team would be notified of their payoffs, so the outcome might somehow influence their next decision and move.

19. Create a dataframe frame of subject/team averages across treatments. Call this dataframe df_team_avg. It should have 162 rows.

df_team_avg <- df_narrow %>% 
  group_by(treatment, uniqueteam) %>% 
  summarise(mean(investment))

# should be get 99 rows 
df_narrow %>%  
  group_by(uniqueteam) %>% 
  summarise(mean(investment))

## # A tibble: 99 x 2
##    uniqueteam      `mean(investment)`
##    <chr>                        <dbl>
##  1 1_1                          54.2 
##  2 1_2                          33.9 
##  3 1_3                          57.0 
##  4 1_4                          45.8 
##  5 1_5                          53.8 
##  6 1_6                          46.1 
##  7 1_7                          41.7 
##  8 1_8                          55.8 
##  9 1_9                          22.8 
## 10 1_individuals_1               2.22
## #  with 89 more rows
…
